…
    ## See spec(...) for full column specifications.

``` r
hf_summary
```

    ## # A tibble: 9,954 x 41
    ##       id sex     age county comorbidity myocardial_infa… congestive_hear…
    ##    <dbl> <chr> <dbl> <chr>        <dbl>            <dbl>            <dbl>
    ##  1     1 f        71 harju            2                0                0
    ##  2     2 f        99 vilja…           0                0                0
    ##  3     3 f        82 idavi…           1                0                1
    ##  4     4 f        98 harju            2                0                1
    ##  5     5 f        83 harju            0                0                0
    ##  6     6 m        51 idavi…           0                0                0
    ##  7     7 m        77 harju            5                1                1
    ##  8     8 f        82 parnu            5                1                1
    ##  9     9 f        87 tartu            2                0                1
    ## 10    10 f       100 harju            2                0                0
    ## # … with 9,944 more rows, and 34 more variables:
    ## #   peripheral_vascular_disease <dbl>, cerebrovascular_disease <dbl>,
    ## #   dementia <dbl>, chronic_pulmonary_disease <dbl>,
    ## #   rheumatic_disease <dbl>, peptic_ulcer_disease <dbl>, diabetes <dbl>,
    ## #   hemi_paraplegia <dbl>, renal_disease <dbl>, any_malignancy <dbl>,
    ## #   liver_disease <dbl>, metastatic_solid_tumor <dbl>, aids_hiv <dbl>,
    ## #   alcohol_abuse <dbl>, obesity <dbl>, psychoses <dbl>, depression <dbl>,
    ## #   date_of_fracture <date>, year <dbl>, fracture_type <chr>,
    ## #   operation_date <date>, days_to_operation <dbl>,
…
